Práticas sobre Manipulação e Tratamento de dados
…
A função filter() é uma função do pacote
dplyr, que seleciona as linhas de um dataset baseado em
algum critério, especialmente em relação à alguma variável.

2.3.1 Fazendo um tipo de
seleção

selecionando apenas os linhas onde o valor da massa dos personagens é
maior que 70 Kg.

starwars %>% 
  filter(mass>70) 

## # A tibble: 39 × 14
##    name        height  mass hair_…¹ skin_…² eye_c…³ birth…⁴ sex   gender homew…⁵
##    <chr>        <int> <dbl> <chr>   <chr>   <chr>     <dbl> <chr> <chr>  <chr>  
##  1 Luke Skywa…    172    77 blond   fair    blue       19   male  mascu… Tatooi…
##  2 C-3PO          167    75 <NA>    gold    yellow    112   none  mascu… Tatooi…
##  3 Darth Vader    202   136 none    white   yellow     41.9 male  mascu… Tatooi…
##  4 Owen Lars      178   120 brown,… light   blue       52   male  mascu… Tatooi…
##  5 Beru White…    165    75 brown   light   blue       47   fema… femin… Tatooi…
##  6 Biggs Dark…    183    84 black   light   brown      24   male  mascu… Tatooi…
##  7 Obi-Wan Ke…    182    77 auburn… fair    blue-g…    57   male  mascu… Stewjon
##  8 Anakin Sky…    188    84 blond   fair    blue       41.9 male  mascu… Tatooi…
##  9 Chewbacca      228   112 brown   unknown blue      200   male  mascu… Kashyy…
## 10 Han Solo       180    80 brown   fair    brown      29   male  mascu… Corell…
## # … with 29 more rows, 4 more variables: species <chr>, films <list>,
## #   vehicles <list>, starships <list>, and abbreviated variable names
## #   ¹​hair_color, ²​skin_color, ³​eye_color, ⁴​birth_year, ⁵​homeworld

2.3.2 Fazendo mais de uma
seleção de uma vez para a mesma variável

Usando o comando | dentro da função
filter(), é possível fazer duas seleções para a mesma
variável.

starwars %>% 
  filter(skin_color=="light" | skin_color=="fair")

## # A tibble: 28 × 14
##    name        height  mass hair_…¹ skin_…² eye_c…³ birth…⁴ sex   gender homew…⁵
##    <chr>        <int> <dbl> <chr>   <chr>   <chr>     <dbl> <chr> <chr>  <chr>  
##  1 Luke Skywa…    172    77 blond   fair    blue       19   male  mascu… Tatooi…
##  2 Leia Organa    150    49 brown   light   brown      19   fema… femin… Aldera…
##  3 Owen Lars      178   120 brown,… light   blue       52   male  mascu… Tatooi…
##  4 Beru White…    165    75 brown   light   blue       47   fema… femin… Tatooi…
##  5 Biggs Dark…    183    84 black   light   brown      24   male  mascu… Tatooi…
##  6 Obi-Wan Ke…    182    77 auburn… fair    blue-g…    57   male  mascu… Stewjon
##  7 Anakin Sky…    188    84 blond   fair    blue       41.9 male  mascu… Tatooi…
##  8 Wilhuff Ta…    180    NA auburn… fair    blue       64   male  mascu… Eriadu 
##  9 Han Solo       180    80 brown   fair    brown      29   male  mascu… Corell…
## 10 Wedge Anti…    170    77 brown   fair    hazel      21   male  mascu… Corell…
## # … with 18 more rows, 4 more variables: species <chr>, films <list>,
## #   vehicles <list>, starships <list>, and abbreviated variable names
## #   ¹​hair_color, ²​skin_color, ³​eye_color, ⁴​birth_year, ⁵​homeworld

Outra forma de fazer a mesma coisa, é utilizando o comando
%in%. Esse comando indica elementos dentro de um vetor ou
de um daraset. Assim, é outra forma para fazer mais de uma seleção para
uma variável.

starwars %>% 
  filter(skin_color %in% c("light","fair"))

## # A tibble: 28 × 14
##    name        height  mass hair_…¹ skin_…² eye_c…³ birth…⁴ sex   gender homew…⁵
##    <chr>        <int> <dbl> <chr>   <chr>   <chr>     <dbl> <chr> <chr>  <chr>  
##  1 Luke Skywa…    172    77 blond   fair    blue       19   male  mascu… Tatooi…
##  2 Leia Organa    150    49 brown   light   brown      19   fema… femin… Aldera…
##  3 Owen Lars      178   120 brown,… light   blue       52   male  mascu… Tatooi…
##  4 Beru White…    165    75 brown   light   blue       47   fema… femin… Tatooi…
##  5 Biggs Dark…    183    84 black   light   brown      24   male  mascu… Tatooi…
##  6 Obi-Wan Ke…    182    77 auburn… fair    blue-g…    57   male  mascu… Stewjon
##  7 Anakin Sky…    188    84 blond   fair    blue       41.9 male  mascu… Tatooi…
##  8 Wilhuff Ta…    180    NA auburn… fair    blue       64   male  mascu… Eriadu 
##  9 Han Solo       180    80 brown   fair    brown      29   male  mascu… Corell…
## 10 Wedge Anti…    170    77 brown   fair    hazel      21   male  mascu… Corell…
## # … with 18 more rows, 4 more variables: species <chr>, films <list>,
## #   vehicles <list>, starships <list>, and abbreviated variable names
## #   ¹​hair_color, ²​skin_color, ³​eye_color, ⁴​birth_year, ⁵​homeworld
…
## # A tibble: 4 × 14
##   name         height  mass hair_…¹ skin_…² eye_c…³ birth…⁴ sex   gender homew…⁵
##   <chr>         <int> <dbl> <chr>   <chr>   <chr>     <dbl> <chr> <chr>  <chr>  
## 1 Greedo          173    74 <NA>    green   black        44 male  mascu… Rodia  
## 2 Bossk           190   113 none    green   red          53 male  mascu… Trando…
## 3 Kit Fisto       196    87 none    green   black        NA male  mascu… Glee A…
## 4 Poggle the …    183    80 none    green   yellow       NA male  mascu… Geonos…
## # … with 4 more variables: species <chr>, films <list>, vehicles <list>,
## #   starships <list>, and abbreviated variable names ¹​hair_color, ²​skin_color,
## #   ³​eye_color, ⁴​birth_year, ⁵​homeworld

starwars %>% 
  filter(mass>70 | skin_color=="green") 

## # A tibble: 41 × 14
##    name        height  mass hair_…¹ skin_…² eye_c…³ birth…⁴ sex   gender homew…⁵
##    <chr>        <int> <dbl> <chr>   <chr>   <chr>     <dbl> <chr> <chr>  <chr>  
##  1 Luke Skywa…    172    77 blond   fair    blue       19   male  mascu… Tatooi…
##  2 C-3PO          167    75 <NA>    gold    yellow    112   none  mascu… Tatooi…
##  3 Darth Vader    202   136 none    white   yellow     41.9 male  mascu… Tatooi…
##  4 Owen Lars      178   120 brown,… light   blue       52   male  mascu… Tatooi…
##  5 Beru White…    165    75 brown   light   blue       47   fema… femin… Tatooi…
##  6 Biggs Dark…    183    84 black   light   brown      24   male  mascu… Tatooi…
##  7 Obi-Wan Ke…    182    77 auburn… fair    blue-g…    57   male  mascu… Stewjon
##  8 Anakin Sky…    188    84 blond   fair    blue       41.9 male  mascu… Tatooi…
##  9 Chewbacca      228   112 brown   unknown blue      200   male  mascu… Kashyy…
## 10 Han Solo       180    80 brown   fair    brown      29   male  mascu… Corell…
## # … with 31 more rows, 4 more variables: species <chr>, films <list>,
## #   vehicles <list>, starships <list>, and abbreviated variable names
## #   ¹​hair_color, ²​skin_color, ³​eye_color, ⁴​birth_year, ⁵​homeworld

2.3.4 Fazendo seleção
baseado em exclusão

selecionando todas as linhas em que a cor de cabelo seja qualquer cor
que não seja preto, através do ! antecedendo o comando

starwars %>% 
  filter(!hair_color=="black") 

## # A tibble: 69 × 14
##    name        height  mass hair_…¹ skin_…² eye_c…³ birth…⁴ sex   gender homew…⁵
##    <chr>        <int> <dbl> <chr>   <chr>   <chr>     <dbl> <chr> <chr>  <chr>  
##  1 Luke Skywa…    172    77 blond   fair    blue       19   male  mascu… Tatooi…
##  2 Darth Vader    202   136 none    white   yellow     41.9 male  mascu… Tatooi…
##  3 Leia Organa    150    49 brown   light   brown      19   fema… femin… Aldera…
##  4 Owen Lars      178   120 brown,… light   blue       52   male  mascu… Tatooi…
##  5 Beru White…    165    75 brown   light   blue       47   fema… femin… Tatooi…
##  6 Obi-Wan Ke…    182    77 auburn… fair    blue-g…    57   male  mascu… Stewjon
##  7 Anakin Sky…    188    84 blond   fair    blue       41.9 male  mascu… Tatooi…
##  8 Wilhuff Ta…    180    NA auburn… fair    blue       64   male  mascu… Eriadu 
##  9 Chewbacca      228   112 brown   unknown blue      200   male  mascu… Kashyy…
## 10 Han Solo       180    80 brown   fair    brown      29   male  mascu… Corell…
## # … with 59 more rows, 4 more variables: species <chr>, films <list>,
## #   vehicles <list>, starships <list>, and abbreviated variable names
## #   ¹​hair_color, ²​skin_color, ³​eye_color, ⁴​birth_year, ⁵​homeworld

Selecionando todas as linhas em que a cor de cabelo seja qualquer cor
que não seja preto, através do comando !=.

starwars %>% 
  filter(hair_color!="black")

## # A tibble: 69 × 14
##    name        height  mass hair_…¹ skin_…² eye_c…³ birth…⁴ sex   gender homew…⁵
##    <chr>        <int> <dbl> <chr>   <chr>   <chr>     <dbl> <chr> <chr>  <chr>  
##  1 Luke Skywa…    172    77 blond   fair    blue       19   male  mascu… Tatooi…
##  2 Darth Vader    202   136 none    white   yellow     41.9 male  mascu… Tatooi…
##  3 Leia Organa    150    49 brown   light   brown      19   fema… femin… Aldera…
##  4 Owen Lars      178   120 brown,… light   blue       52   male  mascu… Tatooi…
##  5 Beru White…    165    75 brown   light   blue       47   fema… femin… Tatooi…
##  6 Obi-Wan Ke…    182    77 auburn… fair    blue-g…    57   male  mascu… Stewjon
##  7 Anakin Sky…    188    84 blond   fair    blue       41.9 male  mascu… Tatooi…
##  8 Wilhuff Ta…    180    NA auburn… fair    blue       64   male  mascu… Eriadu 
##  9 Chewbacca      228   112 brown   unknown blue      200   male  mascu… Kashyy…
## 10 Han Solo       180    80 brown   fair    brown      29   male  mascu… Corell…
## # … with 59 more rows, 4 more variables: species <chr>, films <list>,
## #   vehicles <list>, starships <list>, and abbreviated variable names
## #   ¹​hair_color, ²​skin_color, ³​eye_color, ⁴​birth_year, ⁵​homeworld
…
Naturalmente, também é possível fazer a exclusaão, como mostrado
anteriormente.

starwars %>% 
  filter(!is.na(hair_color))

## # A tibble: 82 × 14
##    name        height  mass hair_…¹ skin_…² eye_c…³ birth…⁴ sex   gender homew…⁵
##    <chr>        <int> <dbl> <chr>   <chr>   <chr>     <dbl> <chr> <chr>  <chr>  
##  1 Luke Skywa…    172    77 blond   fair    blue       19   male  mascu… Tatooi…
##  2 Darth Vader    202   136 none    white   yellow     41.9 male  mascu… Tatooi…
##  3 Leia Organa    150    49 brown   light   brown      19   fema… femin… Aldera…
##  4 Owen Lars      178   120 brown,… light   blue       52   male  mascu… Tatooi…
##  5 Beru White…    165    75 brown   light   blue       47   fema… femin… Tatooi…
##  6 Biggs Dark…    183    84 black   light   brown      24   male  mascu… Tatooi…
##  7 Obi-Wan Ke…    182    77 auburn… fair    blue-g…    57   male  mascu… Stewjon
##  8 Anakin Sky…    188    84 blond   fair    blue       41.9 male  mascu… Tatooi…
##  9 Wilhuff Ta…    180    NA auburn… fair    blue       64   male  mascu… Eriadu 
## 10 Chewbacca      228   112 brown   unknown blue      200   male  mascu… Kashyy…
## # … with 72 more rows, 4 more variables: species <chr>, films <list>,
## #   vehicles <list>, starships <list>, and abbreviated variable names
## #   ¹​hair_color, ²​skin_color, ³​eye_color, ⁴​birth_year, ⁵​homeworld
…
Há situações no tratamento de dados que determinados valores estão
distribuídos em todas as variáveis, onde selecionar as observações que
contém estes valores exige mais que filtrar apenas de uma variável, mais
de todas as variáveis de um dataset. Existem uma série de comandos para
fazer estas operações, dependendo do interesse.

2.4.1 Retirando os
NA’s

É possível excluir todas as linhas com NA do dataset com a função
na.omit().

na.omit(starwars)

## # A tibble: 29 × 14
##    name        height  mass hair_…¹ skin_…² eye_c…³ birth…⁴ sex   gender homew…⁵
##    <chr>        <int> <dbl> <chr>   <chr>   <chr>     <dbl> <chr> <chr>  <chr>  
##  1 Luke Skywa…    172    77 blond   fair    blue       19   male  mascu… Tatooi…
##  2 Darth Vader    202   136 none    white   yellow     41.9 male  mascu… Tatooi…
##  3 Leia Organa    150    49 brown   light   brown      19   fema… femin… Aldera…
##  4 Owen Lars      178   120 brown,… light   blue       52   male  mascu… Tatooi…
##  5 Beru White…    165    75 brown   light   blue       47   fema… femin… Tatooi…
##  6 Biggs Dark…    183    84 black   light   brown      24   male  mascu… Tatooi…
##  7 Obi-Wan Ke…    182    77 auburn… fair    blue-g…    57   male  mascu… Stewjon
##  8 Anakin Sky…    188    84 blond   fair    blue       41.9 male  mascu… Tatooi…
##  9 Chewbacca      228   112 brown   unknown blue      200   male  mascu… Kashyy…
## 10 Han Solo       180    80 brown   fair    brown      29   male  mascu… Corell…
## # … with 19 more rows, 4 more variables: species <chr>, films <list>,
## #   vehicles <list>, starships <list>, and abbreviated variable names
## #   ¹​hair_color, ²​skin_color, ³​eye_color, ⁴​birth_year, ⁵​homeworld
…
3.3 Selecionando apenas
uma coluna

Selecionando apenas a coluna com os dados da cor do cabelo dos
personagens.

starwars %>% 
  select(hair_color) 

## # A tibble: 87 × 1
##    hair_color   
##    <chr>        
##  1 blond        
##  2 <NA>         
##  3 <NA>         
##  4 none         
##  5 brown        
##  6 brown, grey  
##  7 brown        
##  8 <NA>         
##  9 black        
## 10 auburn, white
## # … with 77 more rows

3.4 Selecionando mais de
uma coluna

Selecionando as colunas com os dados da cor do cabelo e dos olhos dos
personagens.

starwars %>% 
  select(c(hair_color,eye_color)) 

## # A tibble: 87 × 2
##    hair_color    eye_color
##    <chr>         <chr>    
##  1 blond         blue     
##  2 <NA>          yellow   
##  3 <NA>          red      
##  4 none          yellow   
##  5 brown         brown    
##  6 brown, grey   blue     
##  7 brown         blue     
##  8 <NA>          red      
##  9 black         brown    
## 10 auburn, white blue-gray
## # … with 77 more rows

3.5 Selecionado colunas
baseado por exclusão

Selecionando todas as colunas com dados que não sejam sobre cor do
cabelo e dos olhos dos personagens.

starwars %>% 
  select(!c(hair_color,eye_color))  

## # A tibble: 87 × 12
##    name  height  mass skin_…¹ birth…² sex   gender homew…³ species films vehic…⁴
##    <chr>  <int> <dbl> <chr>     <dbl> <chr> <chr>  <chr>   <chr>   <lis> <list> 
##  1 Luke…    172    77 fair       19   male  mascu… Tatooi… Human   <chr> <chr>  
##  2 C-3PO    167    75 gold      112   none  mascu… Tatooi… Droid   <chr> <chr>  
##  3 R2-D2     96    32 white,…    33   none  mascu… Naboo   Droid   <chr> <chr>  
##  4 Dart…    202   136 white      41.9 male  mascu… Tatooi… Human   <chr> <chr>  
##  5 Leia…    150    49 light      19   fema… femin… Aldera… Human   <chr> <chr>  
##  6 Owen…    178   120 light      52   male  mascu… Tatooi… Human   <chr> <chr>  
##  7 Beru…    165    75 light      47   fema… femin… Tatooi… Human   <chr> <chr>  
##  8 R5-D4     97    32 white,…    NA   none  mascu… Tatooi… Droid   <chr> <chr>  
##  9 Bigg…    183    84 light      24   male  mascu… Tatooi… Human   <chr> <chr>  
## 10 Obi-…    182    77 fair       57   male  mascu… Stewjon Human   <chr> <chr>  
## # … with 77 more rows, 1 more variable: starships <list>, and abbreviated
## #   variable names ¹​skin_color, ²​birth_year, ³​homeworld, ⁴​vehicles
…
Para facilitar, os próximos resultados estarão com a função
kable().

4.5 Contagem das
ocorrências de mais uma variável

Calculando o nº de elementos da variável da cor de cabelo dos
personagens em relação à cor de olho.

starwars %>% 
  group_by(hair_color, eye_color) %>% 
  summarise(ocorrência=n()) 

## # A tibble: 35 × 3
## # Groups:   hair_color [13]
##    hair_color    eye_color ocorrência
##    <chr>         <chr>          <int>
##  1 auburn        blue               1
##  2 auburn, grey  blue               1
##  3 auburn, white blue-gray          1
##  4 black         blue               2
##  5 black         brown              9
##  6 black         dark               1
##  7 black         yellow             1
##  8 blond         blue               3
##  9 blonde        yellow             1
## 10 brown         blue               7
## # … with 25 more rows
…
5.5.1 Baseado no começo
do nome das colunas

Aqui, será Trasformadas as colunas que os nomes começam em “Sepal”
para criar uma coluna unificada com esses valores e uma nova coluna com
os nomes das estruturas relacionadas.

iris_nova_sépala<-iris %>% 
  pivot_longer(names_to = "Tipo de variável da sépala",
               values_to = "valor",
               cols=starts_with("Sepal")) 

iris_nova_sépala # Conferindo os dados

## # A tibble: 300 × 6
##    Petal.Length Petal.Width Species Nova_Variável Tipo de variável da sé…¹ valor
##           <dbl>       <dbl> <fct>           <dbl> <chr>                    <dbl>
##  1          1.4         0.2 setosa            8.6 Sepal.Length               5.1
##  2          1.4         0.2 setosa            8.6 Sepal.Width                3.5
##  3          1.4         0.2 setosa            7.9 Sepal.Length               4.9
##  4          1.4         0.2 setosa            7.9 Sepal.Width                3  
##  5          1.3         0.2 setosa            7.9 Sepal.Length               4.7
##  6          1.3         0.2 setosa            7.9 Sepal.Width                3.2
##  7          1.5         0.2 setosa            7.7 Sepal.Length               4.6
##  8          1.5         0.2 setosa            7.7 Sepal.Width                3.1
##  9          1.4         0.2 setosa            8.6 Sepal.Length               5  
## 10          1.4         0.2 setosa            8.6 Sepal.Width                3.6
## # … with 290 more rows, and abbreviated variable name
## #   ¹​`Tipo de variável da sépala`
5.5.2 Baseado no fim do
nome das colunas

Aqui, será trasformado as colunas que os nomes terminam em “Length”
para criar uma coluna unificada com esses valores e uma nova coluna com
os nomes das estruturas relacionadas.

iris_nova_comprimento<-iris %>% 
  pivot_longer(names_to = "Estrutura",
               values_to = "Comprimento",
               cols=ends_with("Length")) 

iris_nova_comprimento # Conferindo os dados

## # A tibble: 300 × 6
##    Sepal.Width Petal.Width Species Nova_Variável Estrutura    Comprimento
##          <dbl>       <dbl> <fct>           <dbl> <chr>              <dbl>
##  1         3.5         0.2 setosa            8.6 Sepal.Length         5.1
##  2         3.5         0.2 setosa            8.6 Petal.Length         1.4
##  3         3           0.2 setosa            7.9 Sepal.Length         4.9
##  4         3           0.2 setosa            7.9 Petal.Length         1.4
##  5         3.2         0.2 setosa            7.9 Sepal.Length         4.7
##  6         3.2         0.2 setosa            7.9 Petal.Length         1.3
##  7         3.1         0.2 setosa            7.7 Sepal.Length         4.6
##  8         3.1         0.2 setosa            7.7 Petal.Length         1.5
##  9         3.6         0.2 setosa            8.6 Sepal.Length         5  
## 10         3.6         0.2 setosa            8.6 Petal.Length         1.4
## # … with 290 more rows
5.5.3 Baseado em escolhas
de colunas “aletórias”

Selecionando as variáveis de alturea e massa para criar novas
colunas, uma contendo o tipo de variável (Variável) e outra os valores
(Valor).

starwars_novas_vars<-starwars %>% 
  pivot_longer(names_to = "Variável",
               values_to = "Valor",
               cols=c(height,mass)) 

starwars_novas_vars[13:14] # Conferindo os dados

## # A tibble: 174 × 2
##    Variável Valor
##    <chr>    <dbl>
##  1 height     172
##  2 mass        77
##  3 height     167
##  4 mass        75
##  5 height      96
##  6 mass        32
##  7 height     202
##  8 mass       136
##  9 height     150
## 10 mass        49
## # … with 164 more rows
…
